Time,Temperature,Humidity,Wind,Rain,Light,Battery Level
"25:05:2021, 01:00:00",25,55,14,10,80,high
"25:05:2021, 02:00:00",15,35,4,15,99,medium
"25:05:2021, 03:00:00",35,45,1,15,99,medium
"25:05:2021, 04:00:00",10,45,24,15,99,low
"25:05:2021, 05:00:00",22,45,14,15,99,medium
"25:05:2021, 06:00:00",25,45,34,22,99,medium
"25:05:2021, 07:00:00",32,45,4,22,99,high
"25:05:2021, 08:00:00",45,45,43,22,99,medium
"25:05:2021, 09:00:00",78,45,4,22,99,full
"25:05:2021, 10:00:00",87,45,34,15,99,full
"25:05:2021, 11:00:00",56,45,4,32,99,full
"25:05:2021, 12:00:00",4,45,24,15,99,medium
"25:05:2021, 13:00:00",3,45,41,15,99,high
"25:05:2021, 14:00:00",15,45,46,15,99,high
"25:05:2021, 15:00:00",16,45,34,15,99,high
"25:05:2021, 16:00:00",15,45,64,15,99,medium
"25:05:2021, 17:00:00",13,45,24,15,99,low
"25:05:2021, 18:00:00",15,45,14,15,99,medium
"25:05:2021, 19:00:00",23,45,24,15,99,medium
"25:05:2021, 20:00:00",53,45,42,15,99,medium
"25:05:2021, 21:00:00",15,45,42,15,99,high
"25:05:2021, 22:00:00",15,45,41,15,99,high
"25:05:2021, 23:00:00",15,45,14,15,99,medium
"25:05:2021, 24:00:00",15,45,4,15,99,medium
